[
  {
    "code": 99100,
    "name": "FRANCE"
  },
  {
    "code": 99101,
    "name": "DANEMARK"
  },
  {
    "code": 99102,
    "name": "ISLANDE"
  },
  {
    "code": 99103,
    "name": "NORVEGE"
  },
  {
    "code": 99104,
    "name": "SUEDE"
  },
  {
    "code": 99105,
    "name": "FINLANDE"
  },
  {
    "code": 99106,
    "name": "ESTONIE"
  },
  {
    "code": 99107,
    "name": "LETTONIE"
  },
  {
    "code": 99108,
    "name": "LITUANIE"
  },
  {
    "code": 99109,
    "name": "ALLEMAGNE"
  },
  {
    "code": 99110,
    "name": "AUTRICHE"
  },
  {
    "code": 99111,
    "name": "BULGARIE"
  },
  {
    "code": 99112,
    "name": "HONGRIE"
  },
  {
    "code": 99113,
    "name": "LICHTENSTEIN"
  },
  {
    "code": 99114,
    "name": "ROUMANIE"
  },
  {
    "code": 99116,
    "name": "TCHEQUE (REPUBLIQUE)"
  },
  {
    "code": 99117,
    "name": "SLOVAQUIE"
  },
  {
    "code": 99118,
    "name": "BOSNIE-HERZEGOVINE"
  },
  {
    "code": 99119,
    "name": "CROATIE"
  },
  {
    "code": 99121,
    "name": "YOUGOSLAVIE (SERBIE ET MONTENEGRO)"
  },
  {
    "code": 99122,
    "name": "POLOGNE"
  },
  {
    "code": 99123,
    "name": "FEDERATION DE RUSSIE"
  },
  {
    "code": 99125,
    "name": "ALBANIE"
  },
  {
    "code": 99126,
    "name": "GRECE"
  },
  {
    "code": 99127,
    "name": "ITALIE"
  },
  {
    "code": 99128,
    "name": "SAINT-MARIN"
  },
  {
    "code": 99129,
    "name": "VATICAN (CITE DU)"
  },
  {
    "code": 99130,
    "name": "ANDORRE"
  },
  {
    "code": 99131,
    "name": "BELGIQUE"
  },
  {
    "code": 99132,
    "name": "ROYAUME-UNI"
  },
  {
    "code": 99133,
    "name": "GIBRALTAR"
  },
  {
    "code": 99134,
    "name": "ESPAGNE"
  },
  {
    "code": 99135,
    "name": "PAYS-BAS"
  },
  {
    "code": 99136,
    "name": "IRLANDE"
  },
  {
    "code": 99137,
    "name": "LUXEMBOURG"
  },
  {
    "code": 99138,
    "name": "MONACO"
  },
  {
    "code": 99139,
    "name": "PORTUGAL"
  },
  {
    "code": 99140,
    "name": "SUISSE"
  },
  {
    "code": 99144,
    "name": "MALTE"
  },
  {
    "code": 99145,
    "name": "SLOVENIE"
  },
  {
    "code": 99148,
    "name": "BIELORUSSIE"
  },
  {
    "code": 99151,
    "name": "MOLDAVIE"
  },
  {
    "code": 99155,
    "name": "UKRAINE"
  },
  {
    "code": 99156,
    "name": "MACEDOINE (EX-REPUBLIQUE YOUGOSLAVE DE)"
  },
  {
    "code": 99201,
    "name": "ARABIE SAOUDIENNE (SAOUDITE)"
  },
  {
    "code": 99203,
    "name": "IRAK"
  },
  {
    "code": 9920,
    "name": "4IRAN"
  },
  {
    "code": 99205,
    "name": "LIBAN"
  },
  {
    "code": 99206,
    "name": "SYRIE"
  },
  {
    "code": 99207,
    "name": "ISRAEL"
  },
  {
    "code": 99208,
    "name": "TURQUIE"
  },
  {
    "code": 99212,
    "name": "AFGHANISTAN"
  },
  {
    "code": 99213,
    "name": "PAKISTAN"
  },
  {
    "code": 99214,
    "name": "BOUTHAN"
  },
  {
    "code": 99215,
    "name": "NEPAL"
  },
  {
    "code": 99216,
    "name": "CHINE (REPUBLIQUE POPULAIRE DE)"
  },
  {
    "code": 99217,
    "name": "JAPON"
  },
  {
    "code": 99219,
    "name": "THAILANDE"
  },
  {
    "code": 99220,
    "name": "PHILIPPINES"
  },
  {
    "code": 99222,
    "name": "JORDANIE"
  },
  {
    "code": 99223,
    "name": "INDE"
  },
  {
    "code": 99224,
    "name": "BIRMANIE"
  },
  {
    "code": 99225,
    "name": "BRUNEI"
  },
  {
    "code": 99226,
    "name": "SINGAPOUR"
  },
  {
    "code": 99227,
    "name": "MALAISIE"
  },
  {
    "code": 99229,
    "name": "MALDIVES (ILES)"
  },
  {
    "code": 99231,
    "name": "INDONESIE"
  },
  {
    "code": 99232,
    "name": "MACAO"
  },
  {
    "code": 99234,
    "name": "CAMBODGE"
  },
  {
    "code": 99235,
    "name": "SRI-LANKA (CEYLAN)"
  },
  {
    "code": 99236,
    "name": "TAIWAN (EX FORMOSE)"
  },
  {
    "code": 99237,
    "name": "COREE (SANS AUTRES INDICATIONS)"
  },
  {
    "code": 99238,
    "name": "COREE DU NORD"
  },
  {
    "code": 99239,
    "name": "COREE DU SUD"
  },
  {
    "code": 99240,
    "name": "KOWEIT"
  },
  {
    "code": 99241,
    "name": "LAOS"
  },
  {
    "code": 99242,
    "name": "MONGOLIE (EXTERIEURE)"
  },
  {
    "code": 99243,
    "name": "VIET-NAM"
  },
  {
    "code": 99246,
    "name": "BANGLADESH"
  },
  {
    "code": 99247,
    "name": "EMIRATS ARABES UNIS"
  },
  {
    "code": 99248,
    "name": "QATAR"
  },
  {
    "code": 99249,
    "name": "BAHREIN (ILES)"
  },
  {
    "code": 99250,
    "name": "OMAN (SULTANAT D')"
  },
  {
    "code": 99251,
    "name": "YEMEN"
  },
  {
    "code": 99252,
    "name": "ARMENIE"
  },
  {
    "code": 99253,
    "name": "AZERBAIDJAN"
  },
  {
    "code": 99254,
    "name": "CHYPRE"
  },
  {
    "code": 99255,
    "name": "GEORGIE"
  },
  {
    "code": 99256,
    "name": "KAZAKHSTAN"
  },
  {
    "code": 99257,
    "name": "KIRGHIZISTAN"
  },
  {
    "code": 99258,
    "name": "OUZBEKISTAN"
  },
  {
    "code": 99259,
    "name": "TADJIKISTAN"
  },
  {
    "code": 99260,
    "name": "TURKMENISTAN"
  },
  {
    "code": 99261,
    "name": "PALESTINE"
  },
  {
    "code": 99301,
    "name": "EGYPTE (REPUBLIQUE ARABE D')"
  },
  {
    "code": 99302,
    "name": "LIBERIA"
  },
  {
    "code": 99303,
    "name": "AFRIQUE DU SUD"
  },
  {
    "code": 99304,
    "name": "GAMBIE"
  },
  {
    "code": 99306,
    "name": "STE-HELENE ASCENSION (ILES)"
  },
  {
    "code": 99308,
    "name": "POSSESSIONS G.B. DANS L'OCEAN INDIEN"
  },
  {
    "code": 99309,
    "name": "TANZANIE"
  },
  {
    "code": 99310,
    "name": "ZIMBABWE (EX RHODESIE)"
  },
  {
    "code": 99311,
    "name": "NAMIBIE (EX-SUD-OUEST-AFRICAIN)"
  },
  {
    "code": 99312,
    "name": "ZAIRE CONGO (REPUBLIQUE DEMOCRATIQUE DU)"
  },
  {
    "code": 99313,
    "name": "PRESIDES CANARIES (ILES)"
  },
  {
    "code": 99314,
    "name": "GUINEE EQUATORIALE"
  },
  {
    "code": 99315,
    "name": "ETHIOPIE"
  },
  {
    "code": 99316,
    "name": "LIBYE"
  },
  {
    "code": 99317,
    "name": "ERYTHREE"
  },
  {
    "code": 99318,
    "name": "SOMALIE"
  },
  {
    "code": 99319,
    "name": "ACORES MADERE (ILES)"
  },
  {
    "code": 99321,
    "name": "BURUNDI"
  },
  {
    "code": 99322,
    "name": "CAMEROUN"
  },
  {
    "code": 99323,
    "name": "CENTRAFRIQUE (REPUBLIQUE DE)"
  },
  {
    "code": 99324,
    "name": "CONGO (REPUBLIQUE POPULAIRE DU)"
  },
  {
    "code": 99326,
    "name": "COTE-D'IVOIRE"
  },
  {
    "code": 99327,
    "name": "BENIN"
  },
  {
    "code": 99328,
    "name": "GABON"
  },
  {
    "code": 99329,
    "name": "GHANA"
  },
  {
    "code": 99330,
    "name": "GUINEE"
  },
  {
    "code": 99331,
    "name": "BURKINA (EX HAUTE VOLTA)"
  },
  {
    "code": 99332,
    "name": "KENYA"
  },
  {
    "code": 99333,
    "name": "MADAGASCAR"
  },
  {
    "code": 99334,
    "name": "MALAWI"
  },
  {
    "code": 99335,
    "name": "MALI"
  },
  {
    "code": 99336,
    "name": "MAURITANIE"
  },
  {
    "code": 99337,
    "name": "NIGER"
  },
  {
    "code": 99338,
    "name": "NIGERIA"
  },
  {
    "code": 99339,
    "name": "OUGANDA"
  },
  {
    "code": 99340,
    "name": "RWANDA"
  },
  {
    "code": 99341,
    "name": "SENEGAL"
  },
  {
    "code": 99342,
    "name": "SIERRA-LEONE"
  },
  {
    "code": 99343,
    "name": "SOUDAN"
  },
  {
    "code": 99344,
    "name": "TCHAD"
  },
  {
    "code": 99345,
    "name": "TOGO"
  },
  {
    "code": 99346,
    "name": "ZAMBIE"
  },
  {
    "code": 99347,
    "name": "BOTSWANA"
  },
  {
    "code": 99348,
    "name": "LESOTHO"
  },
  {
    "code": 99350,
    "name": "MAROC"
  },
  {
    "code": 99351,
    "name": "TUNISIE"
  },
  {
    "code": 99352,
    "name": "ALGERIE"
  },
  {
    "code": 99389,
    "name": "SAHARA OCCIDENTAL"
  },
  {
    "code": 99390,
    "name": "MAURICE (ILE)"
  },
  {
    "code": 99391,
    "name": "SWAZILAND"
  },
  {
    "code": 99392,
    "name": "GUINEE BISSAU"
  },
  {
    "code": 99393,
    "name": "MOZAMBIQUE"
  },
  {
    "code": 99394,
    "name": "SAO-TOME-ET-PRINCIPE"
  },
  {
    "code": 99395,
    "name": "ANGOLA"
  },
  {
    "code": 99396,
    "name": "CAP-VERT (ILES)"
  },
  {
    "code": 99397,
    "name": "COMORES"
  },
  {
    "code": 99398,
    "name": "SEYCHELLES (ILES)"
  },
  {
    "code": 99399,
    "name": "DJIBOUTI"
  },
  {
    "code": 99401,
    "name": "CANADA"
  },
  {
    "code": 99404,
    "name": "ETATS-UNIS D'AMERIQUE"
  },
  {
    "code": 99405,
    "name": "MEXIQUE"
  },
  {
    "code": 99406,
    "name": "COSTA-RICA"
  },
  {
    "code": 99407,
    "name": "CUBA"
  },
  {
    "code": 99408,
    "name": "SAINT-DOMINGUE (REPUBLIQUE DE)"
  },
  {
    "code": 99409,
    "name": "GUATEMALA"
  },
  {
    "code": 99410,
    "name": "HAITI"
  },
  {
    "code": 99411,
    "name": "HONDURAS"
  },
  {
    "code": 99412,
    "name": "NICARAGUA"
  },
  {
    "code": 99413,
    "name": "PANAMA"
  },
  {
    "code": 99414,
    "name": "SALVADOR"
  },
  {
    "code": 99415,
    "name": "ARGENTINE"
  },
  {
    "code": 99416,
    "name": "BRESIL"
  },
  {
    "code": 99417,
    "name": "CHILI"
  },
  {
    "code": 99418,
    "name": "BOLIVIE"
  },
  {
    "code": 99419,
    "name": "COLOMBIE"
  },
  {
    "code": 99420,
    "name": "EQUATEUR"
  },
  {
    "code": 99421,
    "name": "PARAGUAY"
  },
  {
    "code": 99422,
    "name": "PEROU"
  },
  {
    "code": 99423,
    "name": "URUGUAY"
  },
  {
    "code": 99424,
    "name": "VENEZUELA"
  },
  {
    "code": 99425,
    "name": "AUTRES POSSESSIONS R-U EN AMERIQUE"
  },
  {
    "code": 99426,
    "name": "JAMAIQUE"
  },
  {
    "code": 99427,
    "name": "FAULKLAND (ILES) TERRES AUSTRALES R-U"
  },
  {
    "code": 99428,
    "name": "GUYANA"
  },
  {
    "code": 99429,
    "name": "BELIZE"
  },
  {
    "code": 99430,
    "name": "GROENLAND"
  },
  {
    "code": 99431,
    "name": "ANTILLES NEERLANDAISES"
  },
  {
    "code": 99432,
    "name": "PORTO-RICO ET POSSESSIONS E-U."
  },
  {
    "code": 99433,
    "name": "TRINITE TOBAGO"
  },
  {
    "code": 99434,
    "name": "BARBADE (ILE)"
  },
  {
    "code": 99435,
    "name": "GRENADE"
  },
  {
    "code": 99436,
    "name": "BAHAMA (ILES)"
  },
  {
    "code": 99437,
    "name": "SURINAM"
  },
  {
    "code": 99438,
    "name": "DOMINIQUE"
  },
  {
    "code": 99439,
    "name": "SAINTE-LUCIE"
  },
  {
    "code": 99440,
    "name": "SAINT-VINCENT-ET-GRENADINES"
  },
  {
    "code": 99441,
    "name": "ILES ANTIGUA ET BARBUDA"
  },
  {
    "code": 99442,
    "name": "SAINT CHRISTOPHE ET NIEVES"
  },
  {
    "code": 99501,
    "name": "AUSTRALIE"
  },
  {
    "code": 99502,
    "name": "NOUVELLE-ZELANDE"
  },
  {
    "code": 99503,
    "name": "ILES (R-U) OCEANIE"
  },
  {
    "code": 99505,
    "name": "ILES (E-U) OCEANIE"
  },
  {
    "code": 99506,
    "name": "SAMOA OCC. NLLE-GUINEE OCC. OU IRIAN"
  },
  {
    "code": 99507,
    "name": "NAURU"
  },
  {
    "code": 99508,
    "name": "FIDJI"
  }
]